﻿prolog : 1
she : 1181
sat : 49
there : 87
quietly : 15
immersed : 2
inside : 13
of : 372
the : 1327
talltale : 1
read : 5
her : 1614
cello : 17
case : 6
right : 42
beside : 1
wavy : 1
dark : 37
tresses : 6
hitting : 6
neck : 26
azure : 2
eyes : 225
captivated : 1
by : 58
daydream : 2
he : 1131
watched : 78
moves : 1
carefully : 6
angrily : 3
did : 74
not : 112
know : 66
how : 37
frail : 3
was : 558
delicate : 1
wrist : 4
were : 109
why : 78
does : 7
haul : 1
that : 236
monstrous : 1
thing : 19
with : 208
left : 31
then : 146
angry : 16
but : 235
an : 32
idea : 3
popped : 5
into : 141
his : 780
head : 122
a : 599
cheshire : 1
smile : 49
came : 66
to : 1020
face : 114
as : 342
chapter : 13
evelyn : 473
best : 6
friend : 11
caden : 338
buy : 2
icecream : 7
at : 333
table : 11
book : 6
side : 33
only : 70
in : 496
huge : 5
school : 17
course : 12
standout : 1
kind : 12
guy : 3
thats : 20
what : 125
drew : 3
him : 405
first : 8
place : 17
never : 34
went : 81
dress : 10
code : 1
and : 883
always : 28
wore : 5
chains : 7
skulls : 1
had : 178
natural : 1
fiery : 5
red : 29
spiky : 1
lengthy : 1
hair : 63
it : 328
stuck : 5
out : 147
random : 2
places : 1
told : 7
one : 61
time : 43
whats : 16
point : 2
taming : 1
when : 98
wants : 4
run : 21
free : 6
hotpink : 2
rimmed : 2
glassed : 1
hazel : 4
looking : 47
golden : 4
after : 43
day : 18
sun : 22
hey : 18
eve : 11
you : 414
still : 45
waved : 4
hand : 69
icy : 5
gone : 22
blank : 7
grin : 5
on : 256
blushed : 12
yeah : 16
im : 48
here : 62
cant : 25
get : 63
rid : 2
me : 146
easily : 2
smiled : 128
back : 162
hands : 73
handed : 2
mint : 3
tea : 2
licked : 4
chocolate : 7
cone : 1
thanks : 3
said : 82
gratefully : 2
they : 116
ate : 3
silence : 10
for : 182
moment : 41
some : 31
people : 21
looked : 244
over : 73
worst : 1
nightmare : 2
heyyyy : 1
ev : 2
christopher : 9
slurred : 3
voice : 76
wrapping : 10
arm : 17
shoulder : 16
quickly : 6
moved : 15
away : 91
from : 157
before : 43
tight : 9
grip : 10
jockey : 1
football : 4
player : 2
who : 34
vowed : 1
every : 24
girls : 5
pants : 2
last : 17
list : 1
go : 87
fool : 1
hissed : 16
growl : 1
beast : 2
reasons : 2
near : 7
glare : 4
words : 17
could : 72
insult : 1
eye : 6
would : 78
watch : 13
understand : 5
really : 27
glared : 8
glasses : 4
now : 60
shade : 1
green : 11
scared : 16
licking : 3
wait : 5
lustful : 2
down : 162
bright : 11
sapphire : 2
growled : 18
backed : 7
up : 255
someone : 17
damien : 415
glaring : 4
under : 25
locks : 5
holding : 28
violent : 1
threat : 2
death : 7
where : 35
are : 50
going : 70
seethed : 13
didnt : 53
look : 38
very : 20
tough : 1
scampered : 1
like : 104
little : 35
dog : 2
loving : 10
hello : 8
soft : 25
nodded : 47
turning : 13
this : 115
angered : 2
do : 93
need : 9
asks : 1
slight : 6
crimson : 4
color : 7
loved : 13
smiles : 2
sweetness : 1
treated : 1
glaze : 2
blinding : 1
shirt : 15
unbuttoned : 1
showing : 4
breasts : 2
just : 98
skirt : 1
bit : 11
hitched : 1
christophers : 1
encounter : 1
bare : 3
thigh : 2
turned : 47
more : 37
stopped : 21
front : 27
their : 26
lips : 52
might : 7
have : 69
touched : 20
if : 75
hadnt : 7
moving : 8
deep : 15
brown : 4
staring : 3
hers : 16
widened : 10
so : 124
thought : 77
saying : 10
whispered : 50
breath : 20
smelling : 1
honeysuckle : 1
wanted : 55
lean : 2
inhale : 1
wonderful : 7
mean : 12
kissing : 4
good : 22
bye : 6
help : 16
strange : 9
yet : 10
intense : 1
exchange : 2
come : 48
we : 31
got : 44
club : 1
room : 84
pushed : 11
past : 5
grabbing : 13
hold : 9
evelyns : 48
followed : 9
door : 98
another : 17
reason : 8
much : 32
because : 45
wasnt : 36
afraid : 28
anyone : 4
except : 4
mom : 7
power : 4
take : 28
computer : 5
cell : 4
phone : 8
them : 79
leave : 15
sly : 1
see : 47
soon : 13
xddddddx : 1
bay : 1
window : 45
rain : 36
trickling : 1
pane : 1
birds : 7
wished : 5
be : 117
lunch : 11
desk : 10
next : 15
letter : 6
meet : 5
english : 1
roomcaden : 1
knew : 55
ask : 7
obvious : 1
about : 44
getting : 18
closer : 16
freaking : 2
both : 14
want : 72
eerie : 1
way : 50
same : 21
classes : 1
sighed : 49
even : 36
remotely : 1
hated : 16
being : 20
made : 50
appetite : 1
lights : 3
off : 54
hear : 16
complaints : 1
classmates : 2
matter : 2
plenty : 1
light : 28
outside : 12
sure : 9
mostly : 3
grey : 6
bizarre : 1
tranquility : 1
open : 23
stood : 44
all : 94
black : 25
closed : 27
shut : 12
gently : 17
scarred : 3
once : 21
relieved : 2
desperate : 7
nearer : 1
slowly : 15
wanting : 14
scare : 3
glanced : 2
again : 105
weapon : 1
nothing : 41
aid : 1
torment : 7
grabbed : 44
winced : 3
cool : 3
touch : 17
asked : 84
shaking : 20
ripping : 2
chair : 16
held : 42
tighter : 5
felt : 63
tears : 79
build : 1
arms : 79
please : 44
let : 82
hurts : 6
whimpered : 8
few : 39
bubbled : 1
couldnt : 58
end : 13
earth : 1
shield : 2
against : 58
wall : 16
pressing : 6
himself : 17
small : 50
breakable : 1
can : 25
tamed : 3
become : 5
tougher : 1
i : 379
wouldnt : 21
hurt : 42
wrapped : 19
around : 81
frame : 6
burying : 1
inhaling : 2
sunlight : 16
smells : 1
constricted : 1
gasped : 9
lack : 1
beet : 1
root : 1
yelled : 30
sob : 8
escaping : 2
throat : 7
stray : 1
silenced : 3
warm : 17
inviting : 2
running : 24
herself : 29
weak : 4
cold : 16
rough : 14
enjoying : 2
bottom : 3
lower : 1
lip : 7
feeling : 29
shiver : 5
pleasure : 2
or : 28
maybe : 23
fear : 9
confused : 9
call : 14
name : 24
well : 34
braking : 2
swollen : 4
mouth : 11
filled : 13
fright : 4
love : 79
bellowed : 3
irritation : 1
took : 49
dont : 64
froze : 12
almost : 17
met : 4
question : 9
sobbing : 10
am : 26
sorry : 18
sobbed : 19
cheeks : 11
maddening : 1
talk : 15
entangled : 1
care : 7
say : 15
such : 4
heartwrenching : 1
teeth : 9
hit : 20
biting : 4
until : 39
blood : 31
stinging : 1
pain : 21
pushing : 3
chest : 26
doing : 9
stop : 33
two : 16
lovers : 1
sent : 2
tell : 17
must : 12
seen : 5
stepped : 7
cellos : 2
man : 26
pull : 4
site : 6
horrified : 2
bleeding : 1
rolled : 13
anger : 11
boiled : 2
yell : 6
opening : 5
marched : 1
forward : 2
saw : 38
fall : 20
ground : 27
whimpering : 1
corner : 8
wicked : 4
put : 23
smirked : 4
livid : 1
sadistic : 1
dare : 7
standing : 8
foolish : 1
sickening : 1
my : 72
life : 10
grinned : 17
sinister : 1
grimy : 1
russet : 1
fighting : 2
growling : 3
each : 8
other : 26
ran : 42
pulled : 21
handmade : 1
uncle : 1
master : 1
passed : 3
set : 10
heavy : 8
metal : 3
piece : 8
add : 2
weight : 3
stronger : 3
boys : 6
move : 15
threw : 55
damiens : 34
warning : 1
heart : 30
clashed : 1
skull : 1
fell : 26
yelling : 8
curses : 1
pained : 5
saddened : 3
darkness : 10
dots : 2
covered : 17
vision : 9
forming : 2
hurried : 12
embracing : 3
gotten : 3
flinched : 5
upper : 1
bruising : 2
shh : 2
its : 67
okay : 31
lets : 10
wakes : 2
happier : 1
relief : 2
izze : 1
soda : 1
peach : 2
sniffed : 3
clutching : 1
laughed : 25
chicken : 5
dumplings : 2
blush : 4
wider : 2
old : 26
thank : 10
kept : 24
tighten : 1
anything : 14
kissed : 21
top : 4
xdddddddx : 28
slept : 4
sound : 17
fully : 2
breathing : 5
edge : 5
bed : 58
blankets : 6
whispers : 1
water : 31
watches : 1
sleep : 18
says : 3
touches : 2
swelling : 2
turns : 1
facing : 2
shun : 1
your : 64
slip : 1
onto : 37
moonlight : 3
streamed : 1
perfect : 2
glowed : 2
shining : 5
gem : 1
sostunning : 1
ribbons : 1
large : 6
cried : 24
hurting : 7
stay : 13
together : 11
thoughts : 16
fantasies : 1
kiss : 10
make : 23
needing : 1
missed : 12
play : 6
needed : 4
calmed : 2
forms : 1
dreams : 3
glow : 4
dead : 8
awoke : 16
streaming : 2
night : 16
stretched : 5
seemed : 12
different : 6
parents : 10
shrugged : 2
laid : 18
keep : 13
sleeping : 10
hours : 6
opened : 36
sitting : 15
wwhy : 2
struggled : 7
happened : 19
yesterday : 2
tooharsh : 1
forced : 2
struggling : 4
feelings : 2
closely : 2
lying : 2
forgiven : 2
arouse : 1
temper : 1
real : 4
forgive : 3
person : 6
suppose : 1
lightly : 12
own : 7
elementary : 1
abused : 2
father : 88
often : 4
mother : 30
long : 11
born : 2
bloodshot : 2
crying : 23
dirty : 5
clothes : 6
stunk : 1
urine : 1
everyday : 2
everyone : 6
any : 10
been : 28
beaten : 4
waiting : 8
pick : 4
sunset : 1
too : 33
late : 3
office : 4
meeting : 4
hate : 18
shoulders : 3
youre : 27
cooler : 1
than : 11
started : 25
comforted : 1
home : 28
plasters : 2
bandage : 2
bruises : 3
is : 86
sweet : 9
innocent : 1
self : 2
will : 41
mine : 10
crazed : 1
close : 16
ago : 5
asking : 5
dense : 1
shook : 31
wrong : 26
tilting : 2
twitching : 1
noticed : 7
knife : 24
kitchen : 17
laying : 9
picked : 21
twirled : 3
ice : 11
flowed : 1
veins : 3
muscles : 2
locked : 6
brimmed : 1
no : 64
horrorstruck : 1
fondly : 1
beautiful : 7
punished : 1
myself : 7
already : 13
yours : 2
tried : 19
faster : 3
tender : 3
leaning : 4
begged : 4
silently : 5
roughly : 7
wrists : 6
honestly : 3
misbehaved : 1
piercing : 1
metallic : 3
became : 22
tainted : 1
blossoms : 3
screamed : 55
muted : 2
slit : 1
seeping : 1
cries : 3
louder : 4
ill : 20
screams : 2
fucking : 16
spit : 2
popping : 1
clouded : 3
slashed : 1
gash : 1
twisted : 2
muffled : 5
bloody : 3
sheets : 3
ear : 19
reached : 15
pocket : 5
gleaming : 1
appears : 1
begin : 1
carve : 1
canvas : 1
rushed : 1
house : 24
either : 5
gut : 3
nasty : 3
pounded : 4
clean : 7
scent : 4
nose : 8
racing : 4
stairs : 46
sobs : 14
sweat : 2
gripped : 2
doorknob : 2
slowing : 1
itself : 4
show : 4
horrific : 1
lay : 2
smeared : 3
drenched : 3
fluid : 1
most : 6
horrifying : 1
carved : 3
ghostly : 1
chuckle : 3
floated : 2
cadens : 45
ears : 16
groaned : 5
body : 31
shivering : 6
hurry : 5
dear : 8
die : 9
has : 11
lost : 3
believe : 5
voiced : 1
mused : 5
bastered : 4
loss : 2
save : 10
done : 14
appeared : 2
shadowy : 1
part : 6
blond : 9
messed : 1
sticking : 1
wild : 6
distraught : 2
sick : 10
disappeared : 10
ii : 3
leaped : 1
landing : 4
grace : 2
remember : 13
sheet : 3
closet : 6
girl : 27
ache : 2
fight : 7
blue : 11
job : 2
horrendous : 1
ever : 13
heard : 47
silent : 11
slightly : 14
walked : 62
eat : 5
soup : 4
since : 4
rarely : 2
talked : 3
blamed : 1
selfs : 1
pouty : 1
cream : 7
crossed : 6
acted : 1
zombie : 1
feed : 1
cake : 1
ranted : 1
rant : 1
food : 19
mind : 17
somewhere : 5
else : 5
something : 36
scares : 1
entered : 3
asleep : 16
tv : 6
mtv : 1
which : 10
unless : 2
liz : 1
peaceful : 2
curls : 2
shape : 1
pale : 9
younger : 5
lot : 3
protected : 2
fun : 7
lacy : 2
boots : 6
freak : 8
angel : 9
clear : 4
melted : 3
soul : 7
wrap : 1
remembered : 8
th : 1
graders : 1
pointed : 5
broken : 5
understanding : 2
think : 19
scoffed : 3
gentleness : 1
themselves : 6
gathered : 3
bringing : 5
tummy : 2
drooling : 2
spread : 2
flight : 2
form : 2
happy : 16
clouds : 4
trembled : 1
weather : 3
freezing : 3
stained : 4
sad : 16
suddenly : 7
dropping : 3
shifted : 1
lighter : 3
began : 41
drip : 1
sand : 1
blotting : 1
evelynevelyn : 1
repeated : 1
bedside : 1
embraced : 6
feel : 22
shivered : 12
waist : 6
remembering : 3
fault : 8
protect : 6
completely : 5
engulfed : 4
wondering : 4
useless : 1
stayed : 8
newly : 1
bun : 1
nook : 1
yes : 20
mrs : 5
heeren : 5
laced : 3
worried : 12
crossing : 1
swaying : 1
paid : 1
heed : 1
party : 3
drunk : 1
beer : 3
wine : 1
daughter : 5
peacefully : 2
through : 12
amazed : 2
glad : 5
expression : 2
whenever : 1
needs : 3
answered : 3
pillow : 5
falling : 10
fast : 8
hidden : 2
others : 7
breathtaking : 1
killer : 2
blade : 1
bring : 10
scarlet : 2
trail : 4
branch : 1
tree : 14
snarled : 7
sight : 2
roared : 1
new : 9
scheme : 1
chuckled : 5
vanished : 1
wind : 6
trees : 8
raining : 2
poured : 2
thundering : 2
rubbed : 6
disturb : 1
switch : 1
yawned : 2
causing : 4
dream : 2
hard : 13
low : 3
meant : 2
youlook : 1
entrance : 1
scary : 4
talking : 6
slapped : 2
painted : 4
becoming : 5
wet : 6
instantly : 2
lighting : 2
flashed : 1
caused : 4
whisper : 3
loud : 6
behind : 18
dripping : 2
dad : 22
baiting : 1
drawing : 4
trance : 1
likes : 6
hug : 4
hugs : 1
better : 7
dangerous : 2
demanding : 1
freighting : 1
calm : 9
distance : 2
storm : 4
buther : 1
mothers : 7
step : 7
called : 26
soaked : 4
trembling : 2
triumphing : 1
further : 5
pulling : 14
use : 9
shes : 3
stand : 7
feet : 19
trying : 17
dazed : 1
unfocused : 2
frown : 2
wake : 5
tightly : 8
blinked : 2
quiet : 6
short : 2
gentle : 15
torn : 4
pinned : 1
clawed : 1
hue : 1
growls : 1
erupted : 1
shoving : 4
snap : 1
howled : 1
frozen : 6
watching : 20
police : 14
listen : 3
wont : 8
far : 7
raged : 1
thumping : 1
kneed : 1
unable : 2
longer : 9
realized : 4
woman : 6
bore : 1
shot : 7
rang : 8
air : 11
floor : 17
smell : 3
mixed : 1
collapsed : 3
knees : 5
buckling : 1
underneath : 3
scene : 1
spun : 2
blotches : 1
corpse : 1
caught : 6
grasp : 3
fitting : 1
perfectly : 1
nudged : 1
cheek : 10
smooth : 2
skin : 26
sit : 9
grass : 10
whispering : 2
songs : 2
fainted : 1
seeing : 11
gun : 4
mourned : 2
friends : 4
sanity : 2
fluttering : 2
lullaby : 2
blurring : 4
cry : 11
iced : 1
widening : 1
increased : 1
cerulean : 1
tightened : 2
wiggle : 1
knowing : 19
happen : 4
escape : 8
firm : 2
flooding : 3
cooed : 3
stroking : 1
soaking : 2
none : 2
rage : 8
bitch : 4
slim : 1
neckyou : 1
manner : 1
willowy : 1
gripping : 3
nails : 4
digging : 4
fade : 2
slender : 2
fingers : 36
losing : 3
vigor : 3
barley : 3
doll : 2
anymore : 14
died : 2
panic : 4
word : 4
coming : 25
hunched : 1
corpselike : 1
god : 20
staggered : 1
welcome : 3
heaven : 2
flooded : 2
yard : 3
blinded : 2
youkilled : 1
attacked : 2
flying : 3
resting : 6
resist : 1
blows : 1
hits : 1
growing : 4
weaker : 2
escaped : 1
sliding : 3
void : 3
empty : 4
shell : 2
function : 1
blanked : 1
hell : 10
pounding : 7
violently : 1
having : 2
killing : 4
intent : 1
fists : 8
traced : 3
dropped : 4
piano : 2
brightness : 1
rainbows : 1
sky : 14
alive : 3
hugged : 12
damp : 1
youcrying : 1
patting : 1
killed : 10
eevelyn : 1
tthink : 1
wwould : 1
ccrying : 1
stuttered : 3
soothed : 3
continued : 4
making : 7
safe : 8
greenish : 2
tawny : 1
gold : 3
liked : 2
full : 12
sickened : 1
sirens : 1
cars : 1
ambulance : 1
stains : 3
chant : 1
doctor : 10
boy : 24
taken : 6
stretcher : 1
bag : 4
messy : 3
tousled : 2
nightgown : 3
while : 12
involved : 1
shadows : 8
unwillingly : 1
forests : 1
finally : 16
returned : 1
weeks : 3
willing : 3
bathroom : 9
lap : 7
bathed : 1
droplets : 2
emotion : 2
comprehend : 1
rubbing : 5
thumb : 1
palm : 2
shyly : 2
quieted : 1
eggs : 2
hatched : 1
arent : 1
cute : 5
giggled : 7
pointing : 2
baby : 3
relaxed : 1
remove : 1
wondered : 12
fever : 1
leaned : 6
taking : 16
touching : 6
means : 1
finger : 2
tips : 1
beating : 5
daring : 3
hopefully : 1
pour : 4
matching : 2
regret : 3
hope : 8
xxx : 10
driveway : 1
subsided : 1
blossom : 4
using : 1
nickname : 1
shoes : 9
cha : 1
chips : 1
intraced : 2
sweaty : 1
guys : 1
throwing : 8
ball : 6
gunna : 3
work : 4
homework : 1
shoved : 2
hotdog : 1
gezz : 5
giggle : 2
flopped : 2
loves : 3
doi : 1
shitty : 1
velvet : 3
box : 4
heck : 1
frightened : 3
find : 14
mysterious : 1
chinese : 1
pizza : 2
cook : 2
store : 1
us : 12
instead : 17
fine : 7
cooking : 3
ruffling : 1
silk : 3
necklace : 3
wow : 1
explained : 3
choker : 3
century : 2
paper : 4
ribbon : 1
poem : 5
written : 1
ink : 2
dearest : 3
sweetest : 1
flower : 2
bloom : 2
beauty : 1
matched : 1
may : 2
holds : 1
ivory : 2
bird : 1
forever : 7
skies : 4
grew : 2
putting : 3
given : 1
glowing : 3
injured : 1
cut : 10
wrote : 1
wickedly : 1
strolled : 1
woods : 4
mist : 4
pound : 2
juggling : 1
bags : 4
curtly : 1
brought : 7
check : 2
fallen : 5
humming : 3
tune : 4
busted : 8
curled : 5
softly : 24
beds : 1
mumbling : 2
monkeys : 2
spaceships : 1
wiggling : 1
youbad : 1
stared : 5
patted : 5
forehead : 8
present : 1
white : 17
rose : 11
smelled : 5
removed : 4
waken : 1
attached : 2
forth : 4
swearing : 1
pair : 4
pressed : 2
tapped : 3
glass : 6
mouthed : 2
backing : 1
stirred : 1
auburn : 1
fury : 1
fled : 2
hide : 5
morning : 8
note : 4
traces : 1
presence : 1
half : 7
plate : 4
pancakes : 2
talented : 1
enough : 8
mickey : 1
mouse : 1
rains : 1
mumbled : 23
muddy : 3
haha : 1
chuckling : 1
sneak : 1
pink : 2
fogging : 1
stomach : 5
finished : 4
pancake : 1
um : 1
gave : 27
placed : 6
umuh : 1
fidget : 3
sign : 1
starts : 1
stern : 1
dunno : 2
pretty : 14
drawn : 3
barely : 3
promise : 8
snuggled : 1
loveseat : 1
movie : 5
pop : 2
popcorn : 1
grab : 5
hot : 2
cider : 1
blanket : 8
horror : 3
knock : 2
jumped : 2
unwilling : 1
walk : 7
answering : 2
smiling : 13
kill : 13
suffer : 2
quick : 2
brilliant : 1
realize : 1
selfless : 1
those : 5
swallowed : 4
guilt : 1
keeps : 1
ready : 7
bound : 2
breathe : 7
umbrella : 2
dressed : 4
young : 2
many : 7
goals : 1
fooled : 1
class : 2
student : 1
peace : 3
mr : 14
bronse : 1
microphone : 1
priest : 1
shouting : 2
coffin : 1
crumbled : 1
lifeless : 1
blink : 1
ceremony : 1
watering : 1
attention : 2
lowing : 1
grave : 10
classmate : 1
graveyards : 1
gates : 4
silver : 1
shinned : 1
untidy : 1
mess : 6
tugged : 3
keeping : 3
approached : 2
starring : 8
depth : 1
disappearing : 1
somewhat : 4
clothed : 1
reeked : 1
dirt : 3
scars : 6
raised : 6
reaching : 4
possible : 1
noise : 2
spreading : 2
grunted : 1
screaming : 6
oh : 12
nocaden : 1
guess : 4
suck : 1
protecting : 3
support : 1
letting : 10
blasted : 1
ease : 1
heaved : 1
lovingly : 1
tugging : 4
weakly : 2
strength : 2
possibly : 1
flung : 2
misty : 1
chained : 8
above : 6
able : 6
blurry : 1
shapes : 1
complete : 2
movements : 1
coughed : 12
lungs : 1
thick : 3
awake : 6
familiar : 3
funny : 2
havent : 2
slipping : 1
bastard : 1
swear : 8
ghastly : 1
pieces : 3
won : 4
between : 3
legs : 10
bow : 1
played : 4
alone : 18
notes : 2
mournful : 1
beginning : 2
anxious : 3
playing : 6
depressing : 1
crawled : 2
curling : 2
rocking : 3
without : 5
colors : 3
dizzy : 1
walking : 15
men : 7
hiding : 4
clenched : 9
nodding : 1
mathews : 6
officer : 9
michael : 3
stupid : 2
damned : 3
clue : 1
m : 2
acting : 1
child : 2
our : 7
ow : 1
shelly : 8
hungry : 5
nah : 2
hung : 1
despair : 2
sore : 2
bear : 1
ca : 1
burning : 4
adrenaline : 3
hearing : 8
steps : 5
monster : 2
honey : 3
pouring : 5
heavily : 1
anguish : 2
flame : 2
candle : 5
dancing : 2
roses : 3
wilt : 1
forgiving : 1
entering : 2
helpless : 2
kisses : 7
melt : 1
dance : 4
happiness : 1
true : 2
greeted : 2
narrowing : 1
cleaned : 1
turtle : 1
jeans : 2
picture : 4
memories : 4
graveyard : 3
haunted : 2
failed : 2
closing : 2
thinking : 5
brighten : 1
cheerfully : 1
rusty : 1
chin : 2
mood : 2
shit : 8
stabbing : 1
panting : 1
numb : 4
worse : 2
sometimes : 6
hates : 4
stares : 2
envious : 2
heat : 6
lame : 1
broke : 12
learned : 1
embrace : 3
give : 7
damn : 7
busy : 1
parties : 1
fights : 1
cursed : 1
corners : 1
snoopy : 1
bandaids : 1
kids : 6
carry : 2
nurses : 1
refused : 1
guilty : 1
bad : 5
wonder : 9
looks : 3
hm : 1
tired : 10
dreaming : 2
rise : 2
middle : 2
therapist : 3
force : 1
jones : 2
fuck : 8
mortone : 1
coat : 2
xdddddddddx : 1
ballet : 1
flats : 1
tall : 2
bushes : 4
smoking : 1
sexy : 1
sandy : 1
goatee : 1
blunt : 1
laughing : 6
following : 3
business : 2
asswipe : 1
mans : 2
narrowed : 3
slutty : 1
joe : 3
female : 2
cherry : 2
hip : 1
raising : 4
eyebrow : 1
gabby : 24
wary : 2
darling : 1
hes : 11
idiot : 7
curious : 1
interest : 2
toward : 9
animal : 1
land : 4
gabbys : 1
southern : 1
drawl : 2
west : 2
anywhere : 2
darlin : 1
grassy : 1
forgot : 2
promised : 2
comfortable : 3
fire : 18
field : 2
tent : 2
fabric : 3
hanging : 1
giant : 1
kinds : 1
telling : 3
tales : 1
world : 5
war : 3
older : 5
children : 4
coven : 1
homeless : 2
gypsies : 2
stated : 4
proudly : 2
brownie : 2
fried : 3
beans : 1
bite : 2
odd : 1
jobs : 1
week : 1
five : 2
hundred : 1
dollars : 2
choking : 2
conundrum : 1
brain : 1
exciting : 1
isnt : 6
allowed : 1
belongs : 2
grandparents : 1
living : 3
freedom : 2
bought : 2
family : 7
history : 1
entwined : 1
surprised : 7
spiteful : 1
towards : 14
things : 6
gentler : 1
ways : 1
thus : 1
praise : 1
trusted : 1
madly : 1
drink : 2
whore : 2
drunken : 2
dingy : 1
rank : 1
cat : 8
embarrassed : 3
shame : 3
horrible : 5
though : 11
showed : 2
caring : 4
log : 1
nor : 4
forget : 1
folk : 1
tomorrow : 2
headed : 1
afar : 2
squeals : 1
intake : 1
wryly : 1
shocked : 5
wide : 4
nicely : 1
probably : 1
drop : 1
landed : 1
classroom : 1
tracks : 1
disbelief : 2
fuming : 1
pitiful : 1
gaze : 5
doesnt : 2
deserve : 3
fair : 2
gets : 2
everything : 21
sadness : 6
abandoned : 1
clutched : 1
jacket : 3
wrecked : 1
mask : 1
hush : 1
smoothing : 1
ok : 1
weakness : 2
sides : 5
pinning : 3
ruby : 1
caressed : 3
damienpleasedont : 1
gester : 2
frenzy : 2
spring : 1
urgent : 1
fiercer : 1
temptation : 1
cradling : 1
fit : 2
easy : 1
also : 4
working : 1
trips : 1
promote : 1
tunes : 1
ipod : 1
online : 4
adored : 1
fans : 3
elderly : 1
homes : 1
song : 2
wifes : 1
singing : 1
laugh : 6
sense : 7
climbing : 1
finial : 1
glance : 3
bent : 5
groggily : 1
rare : 2
pissed : 1
agreement : 1
bennys : 1
café : 1
burger : 1
tasted : 1
mkays : 1
changed : 4
shower : 5
arched : 2
nice : 5
spent : 2
ceiling : 2
wassweet : 1
rising : 2
dressing : 1
daze : 1
tie : 4
keys : 5
doubt : 1
teacher : 1
writing : 3
board : 2
math : 3
fist : 4
clock : 2
ticking : 1
tocking : 1
listened : 7
kamelot : 1
hummed : 3
tapping : 1
bell : 2
rung : 1
saving : 3
evil : 1
walls : 7
stalked : 1
totally : 1
chris : 1
grimaced : 2
cheerleaders : 1
ghost : 1
idiots : 2
pregnant : 1
fake : 1
nonchantly : 1
murderously : 1
books : 6
lockers : 1
twisting : 1
devil : 1
players : 1
tend : 1
ms : 1
guiding : 1
suspended : 2
waving : 1
flag : 1
ass : 2
lock : 5
heaving : 1
break : 4
climbed : 3
dangling : 1
ft : 1
ankle : 15
muttered : 1
dragging : 3
great : 3
luck : 1
dragged : 4
forest : 3
candles : 3
stepping : 1
across : 3
surprise : 7
along : 2
these : 7
serious : 3
sprained : 1
fingered : 1
contact : 3
crook : 1
damienthank : 1
thankful : 1
sofa : 9
live : 4
apartment : 1
wrappings : 2
foot : 3
searched : 2
manor : 3
winked : 1
stiffen : 1
element : 1
strive : 1
swiftly : 2
rigid : 3
struggle : 2
forcing : 2
nibbling : 2
harder : 4
kicked : 5
protest : 1
unmistakable : 1
lust : 2
tongue : 2
tracing : 4
unwanted : 3
spill : 1
connecting : 2
fraction : 1
slapping : 1
belong : 2
mark : 1
remind : 1
bored : 1
amused : 2
tone : 3
nnno : 1
racking : 1
resisting : 1
pleasestop : 1
lingered : 1
silklike : 1
eager : 3
knotting : 1
trailing : 2
moaned : 1
sheer : 2
collar : 2
bone : 1
breast : 2
stone : 1
bodies : 1
pace : 1
grazing : 1
damienpleasestop : 1
yourescaring : 1
meshe : 1
ofme : 1
aged : 2
desolation : 1
speak : 4
hesitantly : 1
ravish : 1
goddess : 2
justcouldnt : 1
emotions : 1
sinking : 3
deeper : 1
depression : 1
sprang : 2
careful : 2
apply : 1
pressure : 1
sounded : 1
breathless : 1
atone : 1
sins : 1
slam : 3
profanities : 1
raucous : 1
crouched : 1
trousers : 1
jaws : 1
spurred : 3
starting : 1
coughing : 3
ginned : 1
satisfaction : 1
bared : 1
badly : 1
thrashed : 1
flow : 1
wish : 3
whip : 2
wipe : 1
liar : 1
spelling : 1
bar : 1
screen : 2
typed : 1
swimming : 1
act : 1
questioned : 2
rolling : 4
acts : 1
gentleman : 3
turn : 4
jump : 2
tiptoed : 1
third : 5
stair : 1
squeaks : 1
snoring : 3
skipped : 1
three : 4
thud : 1
melody : 4
awhile : 2
clearly : 1
unlocked : 5
shutting : 4
road : 1
eating : 5
griped : 1
ungriped : 1
neared : 1
iron : 1
ivy : 1
swirls : 1
memory : 4
blonde : 3
flowing : 1
mama : 3
frog : 4
daddy : 2
pouting : 2
high : 7
hun : 4
theres : 3
pouted : 4
l : 1
straight : 4
car : 3
sunny : 1
wading : 1
frogs : 1
hoping : 5
comes : 1
frogie : 1
squealed : 1
tripped : 1
found : 21
slimy : 1
fading : 1
victory : 2
thunder : 2
cloud : 1
bang : 4
raindrops : 1
figure : 1
picking : 5
skyitsits : 1
driving : 1
ghosting : 2
graves : 1
marble : 1
trained : 3
rest : 6
tragic : 1
spirit : 1
crosses : 1
wife : 5
sting : 1
cross : 1
chriss : 1
brother : 1
son : 10
beers : 1
toilet : 1
rolls : 1
somebody : 1
graffiti : 1
reading : 5
faggot : 1
asshat : 3
rot : 2
agreed : 3
jerk : 1
deserved : 1
giving : 2
mossy : 1
captive : 2
drooped : 1
absence : 1
hall : 1
lead : 3
torture : 1
cement : 3
swarming : 1
frustration : 1
dim : 1
choked : 4
dry : 3
roll : 2
dimlighten : 1
hallway : 1
dawn : 2
fleeing : 1
sighing : 4
laptop : 1
create : 1
password : 1
today : 6
duck : 1
tape : 1
rope : 1
dodged : 1
yourself : 1
cursing : 1
blew : 1
kidnapping : 1
tools : 1
shattering : 4
pitifully : 1
prick : 2
huh : 1
game : 1
dulled : 1
ebony : 2
depressed : 4
hopeful : 4
chance : 5
willingly : 1
sunk : 4
abruptly : 1
wood : 4
nervously : 2
stiffly : 2
starred : 9
lamp : 1
try : 3
blowing : 1
unbearable : 3
doubled : 1
watery : 1
pipe : 1
lifted : 3
shackles : 3
should : 10
gothen : 1
fresh : 2
leaving : 5
worked : 1
harden : 1
manors : 2
basement : 9
slammed : 3
locking : 3
second : 5
brake : 1
burn : 2
breaking : 3
whole : 6
mirror : 3
shards : 2
rivers : 1
sketched : 1
blurred : 2
clenching : 1
didnti : 1
coffee : 1
ash : 2
trays : 1
bottles : 1
snow : 5
screeched : 2
decay : 1
salt : 1
kitten : 10
named : 1
fur : 2
dinner : 7
shoot : 1
sir : 7
peck : 1
hustled : 1
fridge : 1
shy : 2
nod : 1
explain : 1
tiny : 2
mew : 1
youve : 1
slur : 1
reach : 2
hiss : 1
pussy : 1
tail : 2
swinging : 1
sink : 8
garbage : 1
disposal : 3
fathers : 6
loosened : 1
hole : 1
scream : 5
cats : 1
leg : 2
loudly : 3
slamming : 1
size : 2
minutes : 6
grinding : 1
bones : 3
silly : 1
shakily : 1
stump : 1
woke : 1
groggy : 1
kittens : 1
nowhy : 1
bundled : 1
stuffing : 1
everywhere : 6
glee : 2
disappointment : 1
shouldnt : 3
shattered : 1
finish : 3
hook : 1
trouble : 1
chewing : 1
plain : 2
toast : 2
crash : 2
concerned : 1
noodles : 1
blare : 1
invader : 1
zim : 1
yr : 1
philip : 1
rosss : 1
stab : 1
wounds : 4
ross : 2
joined : 1
main : 1
suspect : 1
murdered : 2
kidnapped : 1
photo : 3
melodys : 1
law : 1
employee : 1
month : 2
veil : 2
disgusting : 2
brushing : 8
sweats : 1
crumbs : 1
fisted : 1
fearful : 2
mad : 1
himi : 1
beat : 4
endlessly : 1
racked : 1
later : 6
soothing : 1
sing : 1
calming : 1
choice : 1
cure : 1
addiction : 1
hi : 1
lines : 2
purple : 2
bushing : 1
hairs : 1
abusive : 1
friendsat : 1
least : 3
rested : 3
physical : 1
stress : 1
committed : 1
woken : 1
drown : 1
suit : 1
music : 4
days : 5
cop : 2
bmw : 1
roar : 1
drive : 1
kenny : 1
country : 1
skulking : 1
big : 5
mike : 9
shellys : 4
husband : 2
yup : 2
tonight : 2
towns : 1
absorbed : 1
thisas : 1
calling : 2
anna : 1
hearty : 1
thinks : 1
kid : 1
doorbell : 1
ring : 3
habit : 1
oregon : 1
lush : 1
nowhere : 1
threatened : 1
haunt : 1
wishing : 1
pass : 1
dreaded : 1
woe : 1
harassing : 1
spat : 1
maybeif : 1
flowers : 2
lilies : 1
star : 1
gazers : 1
waters : 2
immediately : 3
pondering : 2
information : 1
dialed : 1
hang : 1
youthere : 1
pause : 2
uncertain : 1
miss : 6
somuch : 1
hugging : 3
evelyni : 1
wiped : 3
phoneevelyn : 1
punishment : 5
slice : 1
number : 1
saved : 1
angels : 1
strained : 4
coarse : 1
joy : 2
frantic : 1
stun : 3
stunned : 3
shadow : 3
jimmy : 1
knob : 2
crap : 1
swing : 2
eyesfilled : 1
desire : 1
sort : 2
capturing : 1
eagerlyalmost : 1
desperately : 1
snaking : 1
tightening : 1
avail : 1
shock : 5
damienstop : 2
himdamien : 1
frantically : 1
roaming : 1
surely : 1
pure : 1
bliss : 1
trailed : 3
sucking : 1
satisfy : 1
hunger : 1
whimper : 2
urged : 2
stutteredhe : 1
shinning : 2
evelynplease : 1
succumb : 1
overwhelming : 1
sync : 1
amount : 1
urgency : 1
yearned : 1
thighs : 1
lifting : 3
lipsslightly : 1
parted : 1
abyss : 1
entrancing : 1
eyelids : 2
limb : 1
blushing : 1
carrying : 2
due : 1
extraordinary : 1
noises : 1
proud : 6
switched : 1
travel : 1
faintly : 1
messaged : 1
response : 1
possibilities : 1
elegant : 1
dipping : 1
spilling : 1
circles : 1
temple : 2
shake : 2
reopened : 1
thump : 14
stare : 3
afraidim : 1
awaiting : 2
rejection : 1
softer : 1
fleshy : 1
dreamsi : 1
shrill : 1
snapped : 1
devilish : 2
smudging : 1
fussing : 1
umwhat : 1
motioned : 1
naked : 3
torso : 1
profusely : 1
rushing : 2
explore : 1
lie : 1
doors : 7
sweating : 1
kinda : 2
fumbling : 1
squeezed : 3
dust : 3
staying : 1
four : 2
posters : 1
stick : 1
fireplace : 4
towould : 1
backclosing : 1
imagined : 1
stars : 2
cuddling : 1
gazebo : 1
study : 1
seem : 4
crack : 2
footsteps : 6
captor : 1
awoken : 1
exhausted : 1
verge : 1
viciously : 1
thrashing : 1
glistened : 1
elbows : 1
trudged : 1
collapse : 1
staircase : 1
pity : 1
punishments : 1
served : 1
gaining : 2
shouted : 3
shackled : 1
plans : 1
lied : 1
preparing : 1
stock : 1
street : 1
rained : 1
permitting : 1
delicious : 1
buds : 1
delightful : 1
sonata : 1
hereevery : 1
painful : 1
betrayed : 1
relive : 1
moments : 8
times : 4
heated : 1
passion : 3
cleanse : 1
spiraling : 1
missing : 1
bothering : 1
focused : 1
droop : 1
enter : 1
nightmares : 1
ratty : 1
gown : 1
raven : 1
askew : 1
lashes : 2
casted : 1
silhouettes : 1
princess : 1
tempted : 1
afford : 1
waking : 1
reluctantly : 1
rattling : 1
stairswhen : 1
youll : 1
dimmed : 1
evelynisis : 1
dude : 1
punched : 1
flinch : 2
stargazing : 1
supposedly : 1
vomit : 1
supposed : 1
blow : 1
wallow : 1
upstairs : 2
hazy : 3
awaking : 1
casting : 1
colored : 1
tapestries : 1
admire : 1
splendor : 1
mahoganythe : 1
poster : 1
covering : 5
strips : 1
sorts : 2
rooms : 2
baffled : 1
massive : 1
area : 2
oldlooking : 1
double : 1
assumed : 1
lastly : 1
shelves : 2
toe : 1
reminded : 1
stunning : 1
prison : 2
settled : 1
glimmered : 1
firelight : 1
reflected : 1
pricked : 2
wanna : 2
creepy : 1
momma : 2
six : 1
year : 4
seven : 2
mommy : 2
tells : 1
itll : 1
brush : 6
wooded : 1
local : 1
library : 1
built : 1
seventh : 1
charged : 1
neighborhood : 1
hill : 1
knockers : 1
worn : 3
lions : 1
embarrassment : 1
cover : 3
tables : 3
dusted : 2
cloth : 1
grand : 1
grasping : 1
led : 1
toured : 1
bedroom : 2
summer : 1
lighten : 1
basked : 1
dusk : 1
sleepy : 3
thoughtful : 1
swelled : 2
sosir : 1
warily : 1
seriously : 1
bravery : 1
steel : 2
believed : 1
caged : 1
banging : 3
stumbling : 2
halfway : 1
click : 1
clothing : 1
searching : 2
upon : 5
silhouette : 1
quickened : 1
youevelyn : 1
leans : 1
collected : 1
entire : 2
rapidly : 1
mmmyou : 1
caress : 1
behave : 1
sternly : 1
concentrating : 1
combat : 1
push : 1
frustrated : 1
softness : 1
test : 1
lose : 2
justjust : 1
heldshe : 1
submissionhe : 1
comforting : 1
swells : 1
lifeblood : 1
pooled : 1
grinded : 1
lash : 1
limp : 1
pillows : 1
excepting : 1
fate : 3
heel : 2
downstairs : 1
parlor : 3
dusty : 1
tabletops : 1
furniture : 1
windows : 2
curtains : 1
consumed : 2
chairs : 1
simple : 1
brushed : 1
bathe : 1
feels : 1
longing : 1
humbly : 1
wither : 1
unaccompanied : 1
blown : 1
comfort : 1
momentthat : 1
thudding : 1
emaciated : 1
core : 2
bolted : 2
clang : 1
pumping : 1
human : 1
peered : 1
jumbled : 1
conveniently : 1
gusto : 1
mistake : 1
astonishment : 2
smirkedrunning : 1
catch : 1
uphe : 1
exit : 1
drumming : 1
pleaded : 2
mustering : 1
courage : 1
entry : 1
scanned : 1
grinning : 1
movement : 3
smirkedcome : 1
waited : 3
breeze : 2
strode : 1
soundlessly : 1
spot : 4
demon : 2
stroked : 1
seconds : 1
ashis : 1
blindly : 1
scraping : 1
brick : 1
wooden : 1
prize : 1
herher : 1
registering : 1
doordont : 1
bath : 2
tub : 4
fan : 1
ripped : 2
freezingcold : 1
tying : 1
belt : 2
scarf : 2
tied : 2
wear : 4
forany : 1
expressionless : 1
wail : 1
unlock : 1
stairscarrying : 1
ignoring : 2
poked : 3
spoonful : 2
mush : 1
somehow : 1
hardened : 1
terribly : 1
ddo : 1
pricking : 1
herand : 1
rape : 1
pt : 1
tense : 1
blame : 1
momyou : 1
practically : 1
sex : 1
truthfully : 1
worship : 1
nicer : 1
realizing : 1
mistakes : 1
thejoy : 1
nicefor : 1
creepier : 1
ten : 2
nine : 1
raging : 2
revenge : 1
mamma : 1
inch : 3
ruffled : 1
worry : 2
listening : 2
bundle : 2
rags : 1
skinny : 2
stringy : 1
tshirt : 1
burned : 3
cooked : 1
raspy : 1
carried : 2
bench : 1
resided : 1
slides : 1
fluttered : 1
cuts : 2
declared : 1
crisp : 1
iton : 1
important : 3
takes : 1
damienyou : 1
socks : 2
pavement : 1
slipped : 2
sneakers : 2
pee : 1
bo : 1
leading : 3
wendis : 1
owes : 1
alright : 1
pasty : 1
towels : 1
unraveling : 1
finding : 1
towel : 1
hastily : 1
answer : 2
pulse : 1
hardly : 1
swallowing : 1
thickly : 1
wool : 1
tights : 2
taught : 1
hat : 2
escapes : 1
pasted : 2
coma : 1
state : 1
steady : 2
sourly : 1
backplease : 1
prayer : 1
weep : 1
shine : 3
spin : 1
spinning : 2
exclaim : 1
embracedher : 1
pitched : 1
screech : 1
lasted : 1
ringing : 1
mimicking : 1
closest : 1
vase : 1
cringe : 1
wobbling : 1
palms : 1
chanted : 1
uncontrollability : 1
dying : 1
toppled : 1
reluctances : 1
stretching : 1
aching : 1
platter : 1
cup : 2
juice : 1
yummy : 2
design : 2
brightened : 1
descending : 1
patio : 1
rejoiced : 1
fierce : 2
knocked : 2
dishes : 1
faint : 1
bleach : 1
drawers : 1
bobby : 1
pin : 2
raced : 1
jabbing : 1
swung : 2
clanking : 3
downward : 1
ankles : 2
threatening : 1
freeze : 1
hips : 1
icelike : 1
chilled : 1
slime : 1
algae : 1
mold : 1
wrinkled : 2
cord : 1
illuminated : 1
bulb : 1
dried : 2
tint : 1
tensed : 6
hearts : 2
slacks : 2
funeral : 1
noticing : 4
gagged : 1
grown : 2
inches : 1
tower : 1
cared : 1
untied : 1
gag : 1
flinging : 1
strong : 4
befriended : 1
grimly : 3
faults : 1
chaste : 1
dontjust : 1
deepened : 1
tongues : 1
frosty : 1
jaw : 2
murder : 1
cowered : 1
considered : 1
deal : 2
strangled : 1
heave : 1
thrusted : 1
utter : 1
makes : 1
hysterically : 1
echoing : 1
personality : 1
change : 3
doomed : 1
flashing : 1
blur : 1
submerged : 1
deaths : 1
punish : 2
curiously : 3
slits : 1
knocking : 2
cadensave : 1
chocking : 1
hoarsely : 1
doorway : 4
worries : 3
setting : 1
fragile : 1
smallest : 1
binding : 1
afternoon : 2
nap : 1
paced : 1
chain : 1
buttons : 1
nervous : 3
yelp : 1
satin : 1
shuttered : 1
button : 1
handsome : 1
frills : 1
lace : 1
admit : 1
wearing : 2
wasted : 1
puking : 1
sunken : 1
gleam : 1
accusing : 1
shackle : 1
unlocking : 1
lotion : 2
argue : 1
applied : 1
supplies : 1
wry : 1
anyway : 2
wonderland : 1
corridor : 1
spoke : 1
tiredly : 1
tests : 2
aced : 1
reminds : 2
enjoyed : 1
werent : 3
nervousness : 1
lift : 1
foods : 1
warming : 2
creating : 1
damienwhy : 1
awe : 2
cade : 1
ashamed : 1
unchain : 1
confident : 2
lingering : 2
excitedly : 1
tasting : 1
intensity : 1
smack : 1
senses : 1
trust : 3
sedated : 1
hauling : 1
worth : 1
wrinkling : 1
within : 1
goal : 1
cigarette : 1
david : 49
inbetween : 1
huddled : 1
snarling : 1
notice : 2
retreated : 1
officers : 3
davids : 3
guns : 1
inhaled : 1
suffering : 1
franticly : 1
trading : 1
darkened : 1
browns : 1
golds : 1
blues : 1
shined : 1
throughout : 2
daylight : 1
soundly : 1
requested : 2
unwavering : 1
id : 1
rather : 1
gulped : 1
hesitated : 1
view : 1
dull : 2
warmth : 3
sunshine : 1
radiating : 1
prettier : 1
nope : 1
compare : 1
dresser : 1
reflection : 1
sickly : 3
ponytail : 1
strokes : 1
counting : 1
certain : 1
exploring : 1
tangled : 1
hum : 1
yawn : 1
sunlightno : 1
bulbbright : 1
phantom : 2
pains : 1
tearing : 1
figures : 2
flit : 1
dreary : 1
hospital : 1
doctors : 2
scurrying : 1
blondish : 1
wise : 1
saints : 1
disheveled : 1
advised : 1
sneered : 1
nurse : 3
spoken : 1
bat : 1
drinking : 2
resent : 1
dyed : 1
ruined : 1
slicked : 1
jackie : 8
placing : 1
painting : 1
camera : 1
pictures : 2
paul : 2
questions : 1
impossible : 1
cameras : 1
faces : 1
pried : 1
jackies : 1
excuse : 3
advice : 1
doc : 2
o : 8
grady : 8
irish : 5
ogrady : 4
throw : 2
twitched : 1
excitement : 1
apparently : 1
distained : 1
extended : 1
interrupted : 1
cannot : 1
incarnated : 1
husbands : 1
scorned : 1
lawyer : 1
shrilled : 1
stomped : 1
importantly : 1
gabriel : 21
burst : 1
uttered : 1
evelyndead : 1
softened : 1
pipes : 1
blacked : 1
plastic : 1
greetings : 1
abundance : 1
breakfast : 1
complain : 1
lacked : 1
character : 1
theme : 1
snacks : 2
indeed : 2
fiddled : 1
strand : 1
complied : 1
warmly : 2
attitude : 1
excited : 1
stopping : 1
favorite : 1
movies : 1
return : 1
heartily : 1
opera : 1
latched : 1
secret : 1
ive : 1
shaky : 1
studio : 1
dumbly : 1
etched : 1
balcony : 1
sided : 1
portraits : 1
drawings : 4
paintings : 1
scattered : 1
sketches : 1
avoiding : 1
scenery : 1
bunch : 1
approval : 1
undid : 1
playground : 1
oak : 1
shop : 1
grade : 1
holstings : 1
startled : 1
terrified : 1
talent : 1
likea : 1
sketch : 1
pad : 1
danced : 1
strawberries : 1
treats : 1
struck : 1
midnight : 1
sketching : 1
sweetly : 1
crazy : 1
awkwardly : 1
brightly : 1
apart : 1
releasing : 1
twig : 1
impishly : 1
scouting : 1
perimeter : 1
brighter : 1
begun : 1
darker : 1
secretly : 1
months : 1
garden : 2
blooming : 1
wonderfully : 1
golly : 1
gabriels : 3
adorned : 1
gleamed : 1
pride : 1
semimorning : 1
outsideevelyns : 1
smelt : 1
scents : 1
explored : 1
forlorn : 1
stuffed : 1
unstained : 1
wallowed : 1
toi : 1
buried : 1
northern : 1
tuned : 1
guzzling : 1
baileys : 1
aye : 1
mistaken : 1
gaelic : 2
speechless : 1
stumbled : 1
mouths : 1
agape : 1
sounds : 1
funniest : 1
lads : 1
impish : 1
lad : 1
oven : 1
pasta : 1
sauce : 2
loaf : 2
french : 1
bread : 2
bowl : 1
absently : 1
ancestors : 1
ya : 1
clapped : 2
clench : 1
heartbroken : 1
da : 2
rooting : 1
start : 1
eowyn : 8
whos : 1
cue : 1
bursting : 1
curves : 1
panicked : 1
sin : 1
revealed : 1
slope : 1
hills : 1
boyo : 1
papa : 2
makeup : 1
caked : 1
tickle : 1
casper : 1
sister : 1
tithe : 1
twins : 1
rat : 1
flesh : 2
dug : 1
eased : 1
shush : 1
brewing : 1
erupt : 1
sorrow : 1
triumph : 1
ha : 1
precious : 1
pathetic : 2
creature : 1
sleepiness : 1
claimed : 1
virgin : 1
everyones : 1
traveling : 1
lassie : 1
guessing : 1
correct : 1
itno : 1
gabriella : 1
taunting : 1
spotted : 1
waltzed : 1
tumbled : 1
mud : 1
gypsy : 3
helped : 1
hour : 2
sometime : 1
meltdown : 1
sandwich : 1
blinking : 1
sprinted : 1
process : 1
flitted : 1
bolt : 1
unexplainable : 1
strike : 1
agony : 1
destroy : 1
evidence : 1
flames : 5
anymoreoh : 1
tickling : 1
unit : 1
dadi : 1
exploded : 1
paint : 1
whipped : 1
begging : 1
treasured : 1
engulfing : 1
beneath : 1
epilogue : 1
howling : 1
chose : 1
unstoppable : 1
accepted : 1
das : 1
chooses : 1
grief : 1
space : 1
