﻿chapter : 6
one : 36
the : 996
worst : 2
kind : 5
of : 215
mark : 1
he : 540
was : 209
an : 15
old : 163
man : 157
who : 16
fished : 1
alone : 5
in : 135
a : 197
skiff : 29
gulf : 1
stream : 2
and : 508
had : 91
gone : 9
eightyfour : 2
days : 7
now : 77
without : 9
catching : 1
fish : 136
during : 2
first : 13
forty : 2
boys : 4
parents : 2
told : 7
him : 136
that : 116
definitely : 1
finally : 6
salao : 1
which : 7
is : 88
form : 1
unlucky : 1
ordered : 1
to : 197
go : 23
another : 12
boat : 20
caught : 5
three : 6
good : 22
week : 1
it : 189
made : 14
boy : 70
sad : 2
see : 25
come : 26
back : 32
each : 8
day : 16
with : 82
his : 208
empty : 2
always : 7
went : 20
down : 48
help : 6
carry : 1
lines : 6
or : 25
gaff : 3
harpoon : 14
sail : 6
patched : 2
flour : 1
sacks : 1
so : 38
when : 49
furled : 3
looked : 14
like : 23
flag : 1
permanent : 1
defeat : 2
thin : 1
gaunt : 1
deep : 5
wrinkles : 1
on : 93
neck : 4
scars : 2
hands : 22
from : 34
handling : 1
heavy : 7
dark : 17
spots : 4
benign : 1
skin : 1
cancer : 1
tropical : 1
sun : 15
brings : 1
were : 43
cheeks : 1
as : 77
forgotten : 1
memories : 1
everything : 8
about : 16
except : 3
eyes : 9
they : 55
same : 3
color : 2
sea : 20
cheerful : 1
undefeated : 1
santiago : 3
said : 123
i : 220
could : 53
you : 116
again : 36
weve : 1
some : 20
money : 1
taught : 1
loved : 5
no : 44
youre : 6
lucky : 5
stay : 5
there : 35
but : 101
remember : 13
how : 23
eightyseven : 1
then : 61
we : 19
big : 19
ones : 5
every : 5
for : 62
weeks : 1
know : 18
did : 35
not : 89
leave : 3
me : 44
because : 8
doubted : 1
papa : 1
am : 23
must : 38
obey : 1
hasnt : 3
much : 15
faith : 1
have : 69
havent : 1
yes : 8
can : 35
offer : 1
beer : 3
terrace : 8
well : 18
take : 14
stuff : 2
home : 4
why : 8
between : 4
fishermen : 10
sat : 3
many : 15
fun : 1
angry : 1
older : 2
at : 42
show : 4
successful : 1
already : 3
butchered : 1
their : 8
marlin : 2
carried : 7
them : 28
ice : 2
truck : 1
would : 30
market : 2
havana : 4
those : 3
sharks : 15
taken : 5
shark : 26
factory : 2
other : 14
side : 13
cove : 1
wind : 3
came : 25
east : 4
smell : 5
thinking : 1
years : 1
ago : 1
out : 48
get : 26
sardines : 10
tomorrow : 4
play : 2
baseball : 8
still : 16
row : 3
rogelio : 1
will : 37
throw : 2
net : 5
if : 25
cannot : 6
serve : 1
way : 12
bought : 2
are : 30
took : 18
five : 3
nearly : 6
killed : 7
brought : 6
too : 24
green : 2
destroyed : 3
tail : 11
slapping : 1
noise : 1
clubbing : 1
really : 3
together : 8
confident : 4
loving : 1
my : 16
id : 2
your : 20
fathers : 3
mothers : 1
may : 6
where : 7
four : 7
baits : 4
mine : 5
left : 23
today : 7
let : 17
fresh : 5
hope : 8
confidence : 3
never : 18
two : 23
agreed : 1
yon : 1
didnt : 5
steal : 1
these : 1
thank : 3
going : 12
be : 34
this : 30
current : 6
simple : 1
wonder : 6
attained : 1
humility : 1
knew : 20
loss : 1
pride : 3
asked : 13
far : 8
want : 13
before : 15
light : 6
strong : 13
enough : 7
truly : 5
think : 13
tricks : 2
us : 5
cast : 4
after : 14
picked : 4
up : 42
things : 7
mast : 9
shoulder : 9
wooden : 1
box : 2
fishing : 5
gear : 3
walked : 3
mans : 10
shack : 9
through : 7
its : 9
open : 5
door : 6
tough : 1
part : 6
royal : 1
palm : 1
called : 4
guano : 1
bed : 10
table : 6
chair : 4
place : 5
dirt : 1
floor : 1
cook : 1
charcoal : 1
brown : 2
walls : 1
picture : 1
sacred : 1
heart : 5
jesus : 1
virgin : 2
cobre : 2
both : 6
relics : 1
wife : 3
once : 8
been : 23
photograph : 1
wall : 2
lonely : 1
shelf : 1
corner : 2
under : 14
clean : 3
shirt : 4
what : 40
do : 42
eat : 26
pot : 2
yellow : 5
rice : 3
make : 13
fire : 1
later : 4
course : 7
remembered : 2
sold : 2
fiction : 2
eightyfive : 1
kicky : 1
number : 1
bring : 11
weighed : 2
over : 22
thousand : 3
pounds : 4
ill : 18
sit : 3
doorway : 1
yesterdays : 2
paper : 2
read : 1
whether : 1
perico : 1
gave : 4
bodega : 1
explained : 1
keep : 14
yours : 1
share : 1
morning : 11
tell : 5
warm : 1
september : 2
month : 1
great : 36
anyone : 2
fisherman : 8
im : 8
asleep : 3
army : 1
blanket : 4
off : 5
spread : 2
mails : 1
strange : 8
powerful : 1
shoulders : 6
times : 4
head : 35
very : 19
closed : 3
life : 3
face : 7
barefoot : 2
wake : 4
opened : 2
moment : 5
coming : 8
long : 18
away : 7
smiled : 1
got : 5
supper : 2
hungry : 2
cant : 2
eating : 4
black : 4
beans : 1
fried : 1
bananas : 1
stow : 1
metal : 1
container : 2
thats : 1
should : 6
ive : 1
asking : 1
gently : 4
until : 8
ready : 5
only : 21
needed : 2
time : 20
wash : 2
thought : 60
village : 1
water : 34
supply : 1
streets : 1
road : 8
here : 5
soap : 1
towel : 1
thoughtless : 1
jacket : 1
winter : 2
sort : 2
shoes : 1
stew : 1
excellent : 2
american : 1
league : 1
yankees : 2
happily : 1
lost : 4
means : 2
nothing : 13
dimaggio : 5
himself : 17
men : 3
team : 1
naturally : 1
makes : 3
difference : 3
used : 3
wanted : 3
timid : 2
ask : 2
say : 8
father : 2
maybe : 10
poor : 1
understand : 1
ship : 1
africa : 4
seen : 6
lions : 3
beaches : 3
evening : 1
talk : 3
john : 1
jota : 1
mcgraw : 1
sometimes : 3
rough : 1
harshspoken : 1
drank : 3
greatest : 1
manager : 1
luque : 1
mike : 1
gonzalez : 1
equal : 1
best : 2
others : 4
better : 6
que : 2
va : 2
happy : 1
along : 4
prove : 2
wrong : 2
such : 7
resolution : 3
ought : 1
night : 13
alarm : 2
clock : 2
age : 2
early : 3
longer : 3
dont : 10
all : 35
young : 3
sleep : 9
late : 3
hard : 8
eaten : 3
rolled : 5
trousers : 4
pillow : 1
putting : 1
newspaper : 1
inside : 8
slept : 6
newspapers : 3
covered : 3
springs : 1
dreamed : 4
golden : 1
lived : 2
coast : 2
dreams : 1
heard : 7
surf : 1
roar : 1
saw : 24
native : 1
boats : 4
riding : 1
smelled : 1
land : 3
breeze : 2
storms : 1
nor : 10
women : 1
events : 1
fights : 1
contests : 1
strength : 10
places : 1
beach : 2
played : 2
cats : 1
dusk : 1
woke : 5
moon : 5
unrolled : 1
put : 19
house : 1
unlocked : 1
quietly : 3
hold : 6
foot : 4
held : 7
turned : 5
nodded : 1
by : 9
sitting : 2
pulled : 13
sleepy : 1
arm : 1
across : 10
sorry : 8
moving : 5
carrying : 2
masts : 1
reached : 5
rolls : 1
lute : 1
basket : 1
coffee : 8
condensedmilk : 1
cans : 2
served : 1
waking : 1
although : 5
manolin : 2
feel : 17
right : 15
credit : 1
slowly : 17
drink : 4
bored : 1
lunch : 1
bottle : 2
bow : 8
feeling : 2
pebbled : 1
sand : 1
feet : 5
lifted : 6
slid : 3
her : 14
into : 30
luck : 11
fitted : 1
rope : 3
lashings : 1
oars : 8
onto : 6
thole : 1
pins : 1
leaning : 1
forward : 4
began : 4
harbor : 2
dip : 3
push : 1
even : 5
though : 10
laud : 1
behind : 3
rowed : 4
ocean : 10
sound : 2
flying : 4
leaving : 1
fond : 1
principal : 1
friends : 2
birds : 4
especially : 1
small : 10
delicate : 4
terns : 1
looking : 6
almost : 5
finding : 1
harder : 2
than : 9
robber : 1
fine : 2
swallows : 1
cruel : 2
she : 6
beautiful : 5
la : 1
mar : 2
people : 4
call : 1
spanish : 1
love : 5
bad : 8
speak : 5
woman : 3
younger : 1
motorboats : 1
el : 2
masculine : 1
contestant : 1
enemy : 1
feminine : 1
something : 12
withheld : 1
favors : 1
wild : 1
wicked : 1
affects : 1
does : 5
rowing : 1
steadily : 6
effort : 2
schools : 1
albacore : 2
different : 1
depths : 2
drifting : 1
hook : 8
sweetsmelling : 1
goodtasting : 1
given : 2
tunas : 2
hung : 3
deepest : 1
blue : 4
runner : 1
jack : 1
line : 48
thick : 1
pencil : 1
looped : 1
stick : 2
any : 10
pull : 14
touch : 2
bait : 6
straight : 3
proper : 1
rose : 7
thinly : 1
low : 1
toward : 3
shore : 2
watched : 9
kept : 2
straighter : 1
titan : 1
precision : 1
anymore : 3
knows : 4
new : 3
rather : 2
exact : 1
comes : 3
just : 19
manofwar : 1
bird : 7
wings : 1
circling : 4
sky : 4
ahead : 2
quick : 2
drop : 1
circled : 2
hes : 6
aloud : 19
dolphin : 11
tuna : 7
air : 5
dropped : 4
leaping : 1
jumps : 3
alter : 1
while : 10
stern : 7
became : 1
taut : 1
felt : 23
weight : 7
shivering : 1
hit : 18
kindness : 1
kicked : 1
hell : 3
started : 14
talking : 1
probably : 2
hot : 3
sweat : 3
trickle : 1
watching : 3
projecting : 2
sticks : 1
sharply : 1
moved : 7
delicately : 1
thumb : 1
forefinger : 1
hand : 36
tentative : 1
exactly : 4
hundred : 4
fathoms : 1
below : 3
point : 4
huge : 5
please : 2
more : 23
difficult : 2
break : 3
arent : 1
lovely : 1
shy : 1
unbelievably : 1
slip : 1
fortyfathom : 1
coils : 2
reserve : 1
coil : 1
using : 1
little : 10
goes : 1
kills : 4
easy : 1
struck : 3
gained : 1
yard : 1
swinging : 1
arms : 2
body : 4
happened : 3
raise : 2
inch : 2
move : 2
northwest : 1
traveled : 1
calm : 5
wish : 9
being : 1
towed : 1
give : 2
wants : 1
god : 6
traveling : 1
hours : 5
swimming : 2
towing : 1
braced : 2
solidly : 2
battle : 2
begins : 2
visible : 1
glow : 4
sunset : 2
cramps : 4
has : 5
mouth : 6
against : 15
changed : 3
cold : 2
tied : 4
sack : 2
around : 8
cautiously : 1
worked : 3
stood : 2
urinated : 1
stars : 6
checked : 1
eastward : 1
grand : 1
leagues : 2
wonderful : 2
radio : 1
doing : 1
stupid : 1
unavoidable : 1
spoils : 1
order : 1
porpoise : 1
hear : 3
rolling : 1
blowing : 1
jokes : 1
our : 5
brothers : 1
pity : 1
hooked : 3
acted : 1
strangely : 1
perhaps : 4
wise : 1
jump : 7
ruin : 1
jumping : 1
flesh : 2
male : 3
pulls : 1
fight : 4
panic : 1
plans : 2
desperate : 2
settled : 2
choice : 1
find : 3
beyond : 1
world : 1
joined : 2
either : 2
surge : 2
cut : 9
eye : 5
blood : 3
ran : 1
cheek : 2
coagulated : 1
dried : 1
chin : 1
rested : 4
wood : 2
wire : 4
slipped : 2
hill : 1
certainly : 1
forever : 2
matter : 2
softly : 1
dead : 4
risen : 3
further : 2
realized : 1
getting : 3
tired : 12
favorable : 1
sign : 1
slam : 1
showed : 2
lesser : 1
depth : 2
mean : 1
might : 5
handle : 2
respect : 1
kill : 14
ends : 1
north : 1
warbler : 1
flew : 2
trip : 1
teetered : 1
gripped : 1
rest : 5
chance : 2
sudden : 2
lurch : 1
overboard : 1
carefully : 3
noticed : 3
bleeding : 1
shifting : 1
kneeling : 1
washed : 2
working : 2
need : 1
knelt : 1
found : 3
stem : 4
knee : 1
strips : 2
red : 2
meat : 5
entire : 1
steady : 4
cramped : 6
cramp : 3
yourself : 2
claw : 1
piece : 1
chewed : 1
unpleasant : 1
stiff : 1
rigor : 1
mortis : 1
feed : 3
brother : 3
ate : 2
plan : 1
unknotting : 1
hate : 1
treachery : 1
own : 1
surface : 4
bulged : 1
unendingly : 1
poured : 2
sides : 3
bright : 2
wide : 4
colored : 1
lavender : 2
sword : 2
bat : 1
tapered : 1
rapier : 1
full : 2
length : 3
reentered : 1
smoothly : 1
diver : 1
scytheblade : 1
race : 1
trying : 2
breaking : 3
slow : 2
pressure : 1
convince : 2
match : 2
learn : 3
run : 2
size : 2
sight : 2
fast : 8
biggest : 1
ever : 4
bigger : 2
jumped : 5
noon : 1
uncramped : 1
comfortable : 1
suffering : 2
admit : 1
religious : 1
ten : 3
hail : 2
marys : 2
catch : 3
promise : 1
pilgrimage : 1
de : 1
christ : 1
greatness : 1
unjust : 1
endures : 1
proved : 1
meant : 2
proving : 1
tried : 4
york : 1
playing : 1
tigers : 1
detroit : 1
second : 3
result : 1
juegos : 1
worthy : 3
perfectly : 1
believe : 6
sure : 4
since : 4
also : 1
eight : 2
set : 1
tavern : 1
casablanca : 1
game : 1
negro : 4
cienfuegos : 1
strongest : 1
docks : 1
elbows : 1
chalk : 1
force : 1
referee : 1
referees : 1
odds : 1
change : 1
forth : 2
campeon : 1
inches : 1
balance : 1
raised : 2
athlete : 1
beaten : 3
daylight : 1
forced : 1
sunday : 1
ended : 1
monday : 1
everyone : 2
champion : 1
few : 1
matches : 1
decided : 3
beat : 5
badly : 6
passed : 2
island : 2
sargasso : 1
weed : 1
bending : 1
flapping : 1
wildly : 1
leaned : 6
burnished : 1
gold : 1
purple : 2
jaws : 7
convulsively : 1
bites : 1
pounded : 1
bottom : 1
flat : 1
clubbed : 1
shivered : 1
slant : 1
cord : 3
movement : 1
noted : 1
bit : 1
slower : 1
lash : 2
learning : 1
anyway : 2
needs : 1
food : 4
whole : 1
pain : 5
dullness : 1
worried : 2
worse : 1
legs : 2
becomes : 1
quickly : 1
sets : 1
name : 1
rigel : 1
soon : 5
distant : 1
friend : 2
loo : 1
glad : 1
try : 5
determination : 1
relaxed : 1
sorrow : 1
dignity : 1
believed : 1
rise : 1
judging : 1
bearing : 1
yet : 2
half : 5
devise : 1
quiet : 1
become : 1
unclear : 1
sleeping : 4
dangerous : 1
clearly : 2
pushed : 3
blade : 6
knife : 8
graywhite : 1
starlight : 1
skinned : 2
fishs : 8
fillets : 2
flow : 1
less : 1
resting : 1
cooked : 1
miserable : 1
raw : 2
salt : 2
limes : 1
clouding : 1
canyon : 1
clouds : 2
weather : 2
tonight : 1
tunnel : 1
jerk : 1
fist : 1
burning : 1
braked : 1
rushed : 1
burned : 1
taking : 1
strain : 3
cutting : 3
making : 2
bursting : 1
fall : 1
racing : 1
raising : 1
tight : 1
slice : 2
waited : 1
pay : 2
splash : 1
fell : 4
speed : 2
known : 1
happen : 2
wet : 2
slowing : 1
earn : 1
crushed : 2
knees : 1
giving : 1
suddenly : 2
hunger : 1
frightened : 1
fear : 2
seemed : 2
fearless : 2
stooped : 1
scooped : 1
afraid : 3
nauseate : 1
cause : 1
vomit : 1
lose : 1
sunrise : 1
headed : 1
circle : 7
true : 1
work : 5
judged : 1
fit : 1
cuts : 1
shifted : 1
worthless : 1
born : 2
fault : 1
training : 1
properly : 1
chances : 1
leant : 1
rising : 2
third : 3
shorten : 1
lime : 1
hour : 3
bones : 1
circles : 2
shorter : 1
slanted : 2
swam : 7
seeing : 1
salted : 2
forehead : 1
twice : 2
faint : 4
dizzy : 1
fail : 1
die : 2
beautifully : 2
endure : 1
consider : 1
banging : 1
jerking : 1
sharp : 1
hitting : 2
wore : 2
necessary : 1
widen : 1
opening : 1
wound : 1
several : 1
stopped : 3
beating : 1
gaining : 2
rubbed : 1
ho : 2
last : 8
oven : 1
kneeled : 1
stand : 1
trade : 1
considerably : 1
fair : 1
steer : 1
south : 1
west : 1
turn : 3
shadow : 1
pass : 2
end : 3
thirty : 1
yards : 1
higher : 1
scythe : 1
pale : 1
above : 3
bulk : 1
stripes : 1
dorsal : 1
fin : 2
pectorals : 1
sweating : 1
else : 2
besides : 3
placid : 1
turns : 2
close : 3
mustnt : 1
closer : 1
straightened : 1
righted : 3
accomplished : 1
dry : 1
reach : 1
alongside : 4
next : 2
killing : 2
greater : 1
calmer : 1
noble : 1
thing : 1
rare : 1
confused : 1
clear : 6
suffer : 2
voice : 1
hardly : 2
promised : 1
mushy : 1
flashes : 1
attack : 1
longgone : 1
agony : 1
high : 4
drove : 6
chest : 2
iron : 1
alive : 7
death : 2
showing : 1
width : 1
power : 1
beauty : 1
hang : 1
crash : 1
sick : 1
cleared : 1
silver : 3
belly : 2
shaft : 1
angle : 1
silvery : 1
floated : 1
waves : 1
laid : 2
slave : 2
prepare : 1
tie : 2
fortune : 1
noose : 1
middle : 2
instead : 2
lay : 4
fifteen : 1
proud : 1
fastened : 1
thwart : 1
lashing : 1
look : 4
dream : 4
sailing : 2
lashed : 3
pleases : 1
trickery : 1
harm : 1
cloud : 1
dispersed : 1
miledeep : 1
broke : 1
scent : 2
following : 1
pick : 1
mako : 1
built : 1
swim : 1
fastest : 1
swordfishs : 1
hide : 1
smooth : 1
handsome : 2
double : 1
lip : 1
rows : 1
teeth : 3
inwards : 1
ordinary : 1
pyramidshaped : 1
most : 1
shaped : 1
fingers : 2
curled : 1
claws : 1
razorsharp : 1
edges : 1
wished : 1
prepared : 1
dentuso : 2
mother : 2
clicking : 1
tore : 2
rammed : 1
brain : 6
bloody : 1
driving : 2
complete : 1
malignancy : 1
swung : 6
accept : 1
ploughed : 1
mutilated : 2
defeated : 1
quite : 1
pattern : 1
readied : 1
inner : 1
done : 2
butt : 1
unarmed : 1
returned : 2
silly : 2
sin : 7
problems : 1
understanding : 1
suppose : 1
sell : 2
enjoyed : 2
selfdefense : 1
keeps : 2
deceive : 1
myself : 1
six : 1
final : 1
galanos : 4
oar : 7
lightly : 2
rebelled : 1
hateful : 1
badsmelling : 1
scavengers : 1
killers : 1
bite : 1
rudder : 2
ay : 1
shake : 1
jerked : 3
bitten : 1
top : 3
spinal : 1
withdrew : 2
catlike : 1
swallowing : 1
died : 1
punched : 2
blow : 1
hurt : 1
squarely : 1
center : 1
flattopped : 1
spot : 1
stabbed : 1
vertebrae : 1
cartilage : 1
galano : 2
slide : 1
mile : 1
wiped : 1
quarter : 1
shouldnt : 1
neither : 2
continued : 1
shes : 1
lighter : 1
underside : 1
shape : 1
defend : 1
single : 1
shovelnose : 1
pig : 2
trough : 1
tire : 1
backwards : 1
snapped : 1
watch : 1
sinking : 1
tiller : 5
short : 2
dub : 2
club : 6
afternoon : 2
blocked : 1
broken : 3
nearest : 1
sink : 1
broad : 1
nose : 2
pieces : 1
spilling : 1
white : 3
loose : 1
shut : 1
front : 2
bone : 1
base : 1
fighting : 1
lights : 4
ruined : 3
halffish : 1
spear : 2
violated : 1
outside : 1
buy : 4
reflected : 1
glare : 1
city : 1
oclock : 1
steered : 1
edge : 1
weapon : 1
midnight : 1
fought : 1
useless : 1
pack : 2
dubbed : 1
desperately : 1
seize : 1
free : 1
chopped : 1
holding : 1
itself : 1
breathe : 1
taste : 1
coppery : 1
sweet : 1
spat : 2
remedy : 1
thoughts : 1
feelings : 1
sailed : 2
beside : 2
stepped : 1
rock : 1
step : 1
climb : 2
tiredness : 1
naked : 1
backbone : 2
mass : 1
bill : 1
nakedness : 1
palms : 1
cry : 1
crying : 3
measuring : 2
skeleton : 1
shouted : 1
care : 3
disturb : 1
eighteen : 1
plenty : 2
milk : 1
sugar : 1
anything : 1
afterwards : 2
proprietor : 1
l : 1
thanks : 1
glass : 1
pedrico : 2
chop : 1
use : 1
traps : 1
search : 1
guard : 1
planes : 1
pleasant : 1
someone : 1
speaking : 1
missed : 1
family : 1
yesterday : 1
lie : 1
papers : 2
teach : 1
drugstore : 1
party : 1
tourists : 1
among : 1
barracudas : 1
spine : 1
tide : 2
whats : 1
waiter : 2
pointed : 1
garbage : 1
waiting : 1
tiburon : 1
eshark : 1
explain : 1
formed : 1
tails : 1
companion : 1
dreaming : 1
reading : 1
httpenglishebooksnet : 1
fascinating : 1
exciting : 1
stories : 1
